<?xml version="1.0" encoding="UTF-8" standalone="no"?>
<!-- Generator: Adobe Illustrator 16.0.0, SVG Export Plug-In . SVG Version: 6.00 Build 0)  -->

<svg
   xmlns:dc="http://purl.org/dc/elements/1.1/"
   xmlns:cc="http://creativecommons.org/ns#"
   xmlns:rdf="http://www.w3.org/1999/02/22-rdf-syntax-ns#"
   xmlns:svg="http://www.w3.org/2000/svg"
   xmlns="http://www.w3.org/2000/svg"
   xmlns:sodipodi="http://sodipodi.sourceforge.net/DTD/sodipodi-0.dtd"
   xmlns:inkscape="http://www.inkscape.org/namespaces/inkscape"
   version="1.1"
   id="Layer_1"
   x="0px"
   y="0px"
   width="32.00005"
   height="31.999989"
   viewBox="0 0 32.00005 31.999989"
   enable-background="new 0 0 864 864"
   xml:space="preserve"
   sodipodi:docname="note_8th.svg"
   inkscape:version="0.92.3 (2405546, 2018-03-11)"><metadata
   id="metadata885"><rdf:RDF><cc:Work
       rdf:about=""><dc:format>image/svg+xml</dc:format><dc:type
         rdf:resource="http://purl.org/dc/dcmitype/StillImage" /><dc:title></dc:title></cc:Work></rdf:RDF></metadata><defs
   id="defs883" /><sodipodi:namedview
   pagecolor="#ffffff"
   bordercolor="#666666"
   borderopacity="1"
   objecttolerance="10"
   gridtolerance="10"
   guidetolerance="10"
   inkscape:pageopacity="0"
   inkscape:pageshadow="2"
   inkscape:window-width="1920"
   inkscape:window-height="1131"
   id="namedview881"
   showgrid="false"
   inkscape:zoom="17.481481"
   inkscape:cx="21.477165"
   inkscape:cy="16.426387"
   inkscape:window-x="0"
   inkscape:window-y="0"
   inkscape:window-maximized="1"
   inkscape:current-layer="Layer_1" />


<path
   d="m 17.370439,5.2877667 c -0.01365,0.26265 -0.03242,0.44781 -0.03137,0.63286 0.01785,3.28761 0.03694,6.5752203 0.05841,9.8628303 0.0227,3.47595 0.06156,6.9519 0.06717,10.42796 0.0027,1.83208 -0.583615,3.40084 -1.96788,4.55071 -2.347448,1.95019 -6.4991935,1.53154 -8.522094,-0.80179 -1.7905621,-2.06535 -1.062572,-5.95417 1.7605584,-6.84786 1.5943306,-0.50476 3.1874996,-0.4747 4.7978816,-0.17052 0.06536,0.0124 0.131696,0.019 0.235515,0.0337 0.03117,-0.14136 0.08238,-0.26253 0.0809,-0.38302 -0.04488,-3.66383 -0.09843,-7.32744 -0.143003,-10.99127 -0.02861,-2.3613503 -0.04416,-4.7227103 -0.06758,-7.0841803 -0.01215,-1.22737 -0.0187,-2.45507 -0.04771,-3.68197994 -0.0126,-0.5303 0.154199,-0.77048 0.685642,-0.80735 1.260484,-0.0875 2.473449,0.0191 3.677534,0.49217 2.611169,1.02608994 5.088633,2.29633994 7.163817,4.32595994 1.250876,1.2235 2.006428,2.71204 1.864804,4.60233 -0.08544,1.1381903 -0.577066,2.0829403 -1.228695,2.9490603 -0.682053,0.90663 -1.473936,1.67971 -2.468382,2.16428 -0.218406,0.10643 -0.516449,0.0247 -0.777734,0.0296 0.04207,-0.2597 0.03708,-0.54221 0.134656,-0.77502 0.337856,-0.80531 0.795793,-1.56308 1.053909,-2.39426 0.522997,-1.6847103 0.06359,-3.0748803 -1.268299,-4.1349003 -1.253626,-0.99796 -2.688482,-1.5363 -4.206346,-1.84695 -0.256744,-0.0527 -0.515811,-0.0928 -0.85166,-0.15237 z"
   id="path876"
   inkscape:connector-curvature="0"
   style="clip-rule:evenodd;fill-rule:evenodd;stroke-width:0.10946404" />

</svg>